{
	"page": 1,
	"total_pages": 30,
	"total_results": 648,
	"results": [
		{
		  "airport": "Ocean Reef Club Airport (OCA),Key Largo,US"
		},
		{
		   "airport": "Pilot Station Airport (PQS),Pilot Station,US"
		}
	]
}
